tb_top.vcd
$date
	Thu Jul  3 00:08:59 2025
$end
$version
	Icarus Verilog
$end
$timescale
	1ps
$end
$scope module tb_top $end
$scope module uut $end
$var wire 1 ! clk $end
$var wire 5 " inp [4:0] $end
$var wire 1 # rst $end
$var wire 1 $ fdivider $end
$var wire 4 % c [3:0] $end
$var wire 4 & bcdsseg [3:0] $end
$var wire 4 ' an [3:0] $end
$var wire 7 ( SSeg [0:6] $end
$scope module BCD $end
$var wire 5 ) inp [4:0] $end
$var wire 1 # rst $end
$var wire 1 $ clk2 $end
$var reg 1 * algo $end
$var reg 4 + bcd [3:0] $end
$var reg 4 , c [3:0] $end
$upscope $end
$scope module BCDtoSSeg $end
$var wire 4 - BCD [3:0] $end
$var wire 4 . an [3:0] $end
$var wire 4 / c [3:0] $end
$var reg 7 0 SSeg [0:6] $end
$upscope $end
$scope module fdiv $end
$var wire 1 ! clk $end
$var reg 5 1 counter [4:0] $end
$var reg 1 $ fdiv $end
$upscope $end
$upscope $end
$upscope $end
$enddefinitions $end
$comment Show the parameter values. $end
$dumpall
$end
#0
$dumpvars
b0 1
bx 0
b0 /
b0 .
bx -
b0 ,
bx +
0*
b11111 )
bx (
b0 '
bx &
b0 %
0$
0#
b11111 "
0!
$end
#5000
b1 1
1!
#10000
0!
#15000
b10 1
1!
#20000
0!
#25000
b11 1
1!
#30000
0!
#35000
b100 1
1!
#40000
0!
#45000
b101 1
1!
#50000
0!
#55000
b110 1
1!
#60000
0!
#65000
b111 1
1!
#70000
0!
#75000
b1000 1
1!
#80000
0!
#85000
b1001 1
1!
#90000
0!
#95000
b1010 1
1!
#100000
0!
#105000
b1001111 (
b1001111 0
b1110 '
b1110 .
b1110 %
b1110 ,
b1110 /
1*
b1 &
b1 +
b1 -
1$
b0 1
1!
#110000
0!
#115000
b1 1
1!
#120000
0!
#125000
b10 1
1!
#130000
0!
#135000
b11 1
1!
#140000
0!
#145000
b100 1
1!
#150000
0!
#155000
b101 1
1!
#160000
0!
#165000
b110 1
1!
#170000
0!
#175000
b111 1
1!
#180000
0!
#185000
b1000 1
1!
#190000
0!
#195000
b1001 1
1!
#200000
0!
#205000
b1010 1
1!
#210000
0!
#215000
0$
b0 1
1!
#220000
0!
#225000
b1 1
1!
#230000
0!
#235000
b10 1
1!
#240000
0!
#245000
b11 1
1!
#250000
0!
#255000
b100 1
1!
#260000
0!
#265000
b101 1
1!
#270000
0!
#275000
b110 1
1!
#280000
0!
#285000
b111 1
1!
#290000
0!
#295000
b1000 1
1!
#300000
0!
#305000
b1001 1
1!
#310000
0!
#315000
b1010 1
1!
#320000
0!
#325000
b110 (
b110 0
b1101 '
b1101 .
b1101 %
b1101 ,
b1101 /
0*
b11 &
b11 +
b11 -
1$
b0 1
1!
#330000
0!
#335000
b1 1
1!
#340000
0!
#345000
b10 1
1!
#350000
0!
#355000
b11 1
1!
#360000
0!
#365000
b100 1
1!
#370000
0!
#375000
b101 1
1!
#380000
0!
#385000
b110 1
1!
#390000
0!
#395000
b111 1
1!
#400000
0!
#405000
b1000 1
1!
#410000
0!
#415000
b1001 1
1!
#420000
0!
#425000
b1010 1
1!
#430000
0!
#435000
0$
b0 1
1!
#440000
0!
#445000
b1 1
1!
#450000
0!
#455000
b10 1
1!
#460000
0!
#465000
b11 1
1!
#470000
0!
#475000
b100 1
1!
#480000
0!
#485000
b101 1
1!
#490000
0!
#495000
b110 1
1!
#500000
0!
#505000
b111 1
1!
#510000
0!
#515000
b1000 1
1!
#520000
0!
#525000
b1001 1
1!
#530000
0!
#535000
b1010 1
1!
#540000
0!
#545000
b1001111 (
b1001111 0
b1110 '
b1110 .
b1110 %
b1110 ,
b1110 /
1*
b1 &
b1 +
b1 -
1$
b0 1
1!
#550000
0!
#555000
b1 1
1!
#560000
0!
#565000
b10 1
1!
#570000
0!
#575000
b11 1
1!
#580000
0!
#585000
b100 1
1!
#590000
0!
#595000
b101 1
1!
#600000
0!
#605000
b110 1
1!
#610000
0!
#615000
b111 1
1!
#620000
0!
#625000
b1000 1
1!
#630000
0!
#635000
b1001 1
1!
#640000
0!
#645000
b1010 1
1!
#650000
0!
#655000
0$
b0 1
1!
#660000
0!
#665000
b1 1
1!
#670000
0!
#675000
b10 1
1!
#680000
0!
#685000
b11 1
1!
#690000
0!
#695000
b100 1
1!
#700000
0!
#705000
b101 1
1!
#710000
0!
#715000
b110 1
1!
#720000
0!
#725000
b111 1
1!
#730000
0!
#735000
b1000 1
1!
#740000
0!
#745000
b1001 1
1!
#750000
0!
#755000
b1010 1
1!
#760000
0!
#765000
b110 (
b110 0
b1101 '
b1101 .
b1101 %
b1101 ,
b1101 /
0*
b11 &
b11 +
b11 -
1$
b0 1
1!
#770000
0!
#775000
b1 1
1!
#780000
0!
#785000
b10 1
1!
#790000
0!
#795000
b11 1
1!
