top_sum_res_tb.vcd
$date
	Thu Jul  3 00:11:02 2025
$end
$version
	Icarus Verilog
$end
$timescale
	1ps
$end
$scope module top_sum_res_tb $end
$var wire 4 ! an [3:0] $end
$var wire 7 " SSeg [0:6] $end
$var reg 4 # A [3:0] $end
$var reg 4 $ B [3:0] $end
$var reg 1 % Sel $end
$var reg 1 & clk $end
$var reg 1 ' rst $end
$scope module TSR $end
$var wire 4 ( A [3:0] $end
$var wire 4 ) B [3:0] $end
$var wire 1 % Sel $end
$var wire 1 & clk $end
$var wire 1 ' rst $end
$var wire 5 * inp_top [4:0] $end
$var wire 4 + an [3:0] $end
$var wire 7 , SSeg [0:6] $end
$var wire 4 - S [3:0] $end
$var wire 1 . Cout $end
$scope module sr $end
$var wire 4 / A [3:0] $end
$var wire 4 0 B [3:0] $end
$var wire 4 1 B_c [3:0] $end
$var wire 1 % Sel $end
$var wire 4 2 S [3:0] $end
$var wire 1 . Cout $end
$scope module UUT $end
$var wire 4 3 A [3:0] $end
$var wire 4 4 B [3:0] $end
$var wire 1 % Ci $end
$var wire 1 5 c2 $end
$var wire 1 6 c1 $end
$var wire 1 7 c0 $end
$var wire 4 8 S [3:0] $end
$var wire 1 . Cout $end
$scope module S0 $end
$var wire 1 9 A $end
$var wire 1 : B $end
$var wire 1 % Ci $end
$var wire 1 7 Cout $end
$var wire 1 ; S $end
$var wire 1 < a_ab $end
$var wire 1 = cout_t $end
$var wire 1 > x_ab $end
$upscope $end
$scope module S1 $end
$var wire 1 ? A $end
$var wire 1 @ B $end
$var wire 1 7 Ci $end
$var wire 1 6 Cout $end
$var wire 1 A S $end
$var wire 1 B a_ab $end
$var wire 1 C cout_t $end
$var wire 1 D x_ab $end
$upscope $end
$scope module S2 $end
$var wire 1 E A $end
$var wire 1 F B $end
$var wire 1 6 Ci $end
$var wire 1 5 Cout $end
$var wire 1 G S $end
$var wire 1 H a_ab $end
$var wire 1 I cout_t $end
$var wire 1 J x_ab $end
$upscope $end
$scope module S3 $end
$var wire 1 K A $end
$var wire 1 L B $end
$var wire 1 5 Ci $end
$var wire 1 . Cout $end
$var wire 1 M S $end
$var wire 1 N a_ab $end
$var wire 1 O cout_t $end
$var wire 1 P x_ab $end
$upscope $end
$upscope $end
$upscope $end
$scope module u_top $end
$var wire 1 & clk $end
$var wire 5 Q inp [4:0] $end
$var wire 1 ' rst $end
$var wire 1 R fdivider $end
$var wire 4 S c [3:0] $end
$var wire 4 T bcdsseg [3:0] $end
$var wire 4 U an [3:0] $end
$var wire 7 V SSeg [0:6] $end
$scope module BCD $end
$var wire 5 W inp [4:0] $end
$var wire 1 ' rst $end
$var wire 1 R clk2 $end
$var reg 1 X algo $end
$var reg 4 Y bcd [3:0] $end
$var reg 4 Z c [3:0] $end
$upscope $end
$scope module BCDtoSSeg $end
$var wire 4 [ BCD [3:0] $end
$var wire 4 \ an [3:0] $end
$var wire 4 ] c [3:0] $end
$var reg 7 ^ SSeg [0:6] $end
$upscope $end
$scope module fdiv $end
$var wire 1 & clk $end
$var reg 5 _ counter [4:0] $end
$var reg 1 R fdiv $end
$upscope $end
$upscope $end
$upscope $end
$upscope $end
$enddefinitions $end
$comment Show the parameter values. $end
$dumpall
$end
#0
$dumpvars
b0 _
bx ^
b0 ]
b0 \
bx [
b0 Z
bx Y
0X
b0 W
bx V
b0 U
bx T
b0 S
0R
b0 Q
0P
0O
0N
0M
0L
0K
0J
0I
0H
0G
0F
0E
0D
0C
0B
0A
0@
0?
0>
0=
0<
0;
0:
09
b0 8
07
06
05
b0 4
b0 3
b0 2
b0 1
b0 0
b0 /
0.
b0 -
bx ,
b0 +
b0 *
b0 )
b0 (
1'
0&
0%
b0 $
b0 #
bx "
b0 !
$end
#5000
b1 _
1&
#10000
0&
#15000
b10 _
1&
#20000
0&
#25000
b11 _
1&
#30000
0&
#35000
b100 _
1&
#40000
0&
#45000
b101 _
1&
#50000
0&
#55000
b110 _
1&
#60000
0&
#65000
b111 _
1&
#70000
0&
#75000
b1000 _
1&
#80000
0&
#85000
b1001 _
1&
#90000
0&
#95000
b1010 _
1&
#100000
1G
16
1B
1;
b101 *
b101 Q
b101 W
b101 -
b101 2
b101 8
0A
1@
1>
0D
b10 1
b10 4
19
1?
0&
b10 $
b10 )
b10 0
b11 #
b11 (
b11 /
b11 3
0'
#105000
b100100 "
b100100 ,
b100100 V
b100100 ^
b1110 !
b1110 +
b1110 U
b1110 \
b1110 S
b1110 Z
b1110 ]
1X
b101 T
b101 Y
b101 [
1R
b0 _
1&
#110000
0&
#115000
b1 _
1&
#120000
0&
#125000
b10 _
1&
#130000
0&
#135000
b11 _
1&
#140000
0&
#145000
b100 _
1&
#150000
0&
#155000
b101 _
1&
#160000
0&
#165000
b110 _
1&
#170000
0&
#175000
b111 _
1&
#180000
0&
#185000
b1000 _
1&
#190000
0&
#195000
b1001 _
1&
#200000
0&
#205000
b1010 _
1&
#210000
0&
#215000
0R
b0 _
1&
#220000
0&
#225000
b1 _
1&
#230000
0&
#235000
b10 _
1&
#240000
0&
#245000
b11 _
1&
#250000
0&
#255000
b100 _
1&
#260000
0&
#265000
b101 _
1&
#270000
0&
#275000
b110 _
1&
#280000
0&
#285000
b111 _
1&
#290000
0&
#295000
b1000 _
1&
#300000
1.
1O
15
1C
1I
0G
0M
1<
0>
0B
1D
1J
1P
0A
1:
0@
1F
1L
17
b1101 1
b1101 4
b10001 *
b10001 Q
b10001 W
b1 -
b1 2
b1 8
1;
0=
0&
1%
#305000
b1001 _
1&
#310000
0&
#315000
b1010 _
1&
#320000
0&
#325000
b1001111 "
b1001111 ,
b1001111 V
b1001111 ^
b1101 !
b1101 +
b1101 U
b1101 \
b1101 S
b1101 Z
b1101 ]
0X
b1 T
b1 Y
b1 [
1R
b0 _
1&
#330000
0&
#335000
b1 _
1&
#340000
0&
#345000
b10 _
1&
#350000
0&
#355000
b11 _
1&
#360000
0&
#365000
b100 _
1&
#370000
0&
#375000
b101 _
1&
#380000
0&
#385000
b110 _
1&
#390000
0&
#395000
b111 _
1&
#400000
0&
#405000
b1000 _
1&
#410000
0&
#415000
b1001 _
1&
#420000
0&
#425000
b1010 _
1&
#430000
0&
#435000
0R
b0 _
1&
#440000
0&
#445000
b1 _
1&
#450000
0&
#455000
b10 _
1&
#460000
0&
#465000
b11 _
1&
#470000
0&
#475000
b100 _
1&
#480000
0&
#485000
b101 _
1&
#490000
0&
#495000
b110 _
1&
#500000
0.
1M
0O
05
1G
0I
06
1A
0C
07
0=
b1111 *
b1111 Q
b1111 W
b1111 -
b1111 2
b1111 8
1;
0:
0<
0>
b1100 1
b1100 4
09
0&
b11 $
b11 )
b11 0
b10 #
b10 (
b10 /
b10 3
#505000
b111 _
1&
#510000
0&
#515000
b1000 _
1&
#520000
0&
#525000
b1001 _
1&
#530000
0&
#535000
b1010 _
1&
#540000
0&
#545000
b100100 "
b100100 ,
b100100 V
b100100 ^
b1110 !
b1110 +
b1110 U
b1110 \
b1110 S
b1110 Z
b1110 ]
1X
b101 T
b101 Y
b101 [
1R
b0 _
1&
#550000
0&
#555000
b1 _
1&
#560000
0&
#565000
b10 _
1&
#570000
0&
#575000
b11 _
1&
#580000
0&
#585000
b100 _
1&
#590000
0&
#595000
b101 _
1&
#600000
0&
#605000
b110 _
1&
#610000
0&
#615000
b111 _
1&
#620000
0&
#625000
b1000 _
1&
#630000
0&
#635000
b1001 _
1&
#640000
0&
#645000
b1010 _
1&
#650000
0&
#655000
0R
b0 _
1&
#660000
0&
#665000
b1 _
1&
#670000
0&
#675000
b10 _
1&
#680000
0&
#685000
b11 _
1&
#690000
0&
#695000
b100 _
1&
#700000
0G
0J
0A
1.
0M
0F
0D
1N
0P
b10000 *
b10000 Q
b10000 W
b0 -
b0 2
b0 8
0;
b1000 1
b1000 4
0?
1K
0&
0%
b1000 $
b1000 )
b1000 0
b1000 #
b1000 (
b1000 /
b1000 3
#705000
b101 _
1&
#710000
0&
#715000
b110 _
1&
#720000
0&
#725000
b111 _
1&
#730000
0&
#735000
b1000 _
1&
#740000
0&
#745000
b1001 _
1&
#750000
0&
#755000
b1010 _
1&
#760000
0&
#765000
b1001111 "
b1001111 ,
b1001111 V
b1001111 ^
b1101 !
b1101 +
b1101 U
b1101 \
b1101 S
b1101 Z
b1101 ]
0X
b1 T
b1 Y
b1 [
1R
b0 _
1&
#770000
0&
#775000
b1 _
1&
#780000
0&
#785000
b10 _
1&
#790000
0&
#795000
b11 _
1&
#800000
0&
#805000
b100 _
1&
#810000
0&
#815000
b101 _
1&
#820000
0&
#825000
b110 _
1&
#830000
0&
#835000
b111 _
1&
#840000
0&
#845000
b1000 _
1&
#850000
0&
#855000
b1001 _
1&
#860000
0&
#865000
b1010 _
1&
#870000
0&
#875000
0R
b0 _
1&
#880000
0&
#885000
b1 _
1&
#890000
0&
#895000
b10 _
1&
#900000
0&
#905000
b11 _
1&
#910000
0&
#915000
b100 _
1&
#920000
0&
#925000
b101 _
1&
#930000
0&
#935000
b110 _
1&
#940000
0&
#945000
b111 _
1&
#950000
0&
#955000
b1000 _
1&
#960000
0&
#965000
b1001 _
1&
#970000
0&
#975000
b1010 _
1&
#980000
0&
#985000
b100000 "
b100000 ,
b100000 V
b100000 ^
b1110 !
b1110 +
b1110 U
b1110 \
b1110 S
b1110 Z
b1110 ]
1X
b110 T
b110 Y
b110 [
1R
b0 _
1&
#990000
0&
#995000
b1 _
1&
